Amazon in Presidential Speeches in Brazil: data exploration for contexts
…
# Let's see if bigrams help us more here
tamazon <- tidytext::tidy(amazon_corpus) %>%
  unnest_tokens(bigram, text , token = "ngrams", n = 2) %>%
  dplyr::count(bigram, sort = TRUE) %>%
  ungroup()
tamazon

## # A tibble: 63,128 x 2
##    bigram                          n
##    <chr>                       <int>
##  1 meio ambiente                 152
##  2 rio grande                     81
##  3 forcas armadas                 71
##  4 zona franca                    71
##  5 visite site                    66
##  6 muitas vezes                   62
##  7 palavra it                     54
##  8 site secretaria                53
##  9 desenvolvimento sustentavel    51
## 10 lula silva                     48
## # ... with 63,118 more rows
…
