Amazon in Presidential Speeches in Brazil (Inductive Analysis)
…
# Let's see if bigrams help us more here
tamazon <- tidytext::tidy(amazon_corpus) %>%
  unnest_tokens(bigram, text , token = "ngrams", n = 3, n_min = 2) %>%
  dplyr::count(bigram, sort = TRUE) %>%
  ungroup()
tamazon # Not very informative either...

## # A tibble: 1,626,544 x 2
##    bigram                                           n
##    <chr>                                        <int>
##  1 visite site                                   1780
##  2 site secretaria                               1587
##  3 visite site secretaria                        1585
##  4 secretaria httpwwwimprensaplanaltogovbr       1240
##  5 site secretaria httpwwwimprensaplanaltogovbr  1240
##  6 presidente repblica                          1050
##  7  importante                                   864
##  8 d n                                            846
##  9 d n t                                          846
## 10 i d                                            846
## # ... with 1,626,534 more rows
…
