Amazon in Presidential Speeches in Brazil: data exploration for contexts
…
# Let's see if bigrams help us more here
tamazon <- tidytext::tidy(amazon_corpus) %>%
  unnest_tokens(bigram, text , token = "ngrams", n = 2) %>%
  dplyr::count(bigram, sort = TRUE) %>%
  ungroup()
tamazon

## # A tibble: 65,569 x 2
##    bigram             n
##    <chr>          <int>
##  1 meio ambiente    152
##  2 mato grosso       95
##  3 rio janeiro       84
##  4 rio grande        81
##  5 forcas armadas    71
##  6 zona franca       71
##  7 visite site       66
##  8 muitas vezes      62
##  9 cada vez          55
## 10 palavra it        54
## # ... with 65,559 more rows
…
